/Users/bbuckley/.rbenv/versions/2.2.2/bin/ruby -r ./siteconf20150711-62035-1vxlaj5.rb extconf.rb
creating Makefile

make "DESTDIR=" clean

make "DESTDIR="
make: Nothing to be done for `all'.

make "DESTDIR=" install
